module framagit.org/rosa/web/taller_web

go 1.23

require (
	github.com/colinwilson/lotusdocs v0.1.1-0.20231204194117-128b0ae80b44 // indirect
	github.com/gohugoio/hugo-mod-bootstrap-scss/v5 v5.20300.20200 // indirect
)
